sdram_cntl.vcd
$date
    Sun May 15 10:57:55 2022
$end
$version
    MyHDL 0.11
$end
$timescale
    1ns
$end

$scope module sdram_cntl $end
$var reg 1 ! clk_i $end
$var reg 1 " activate_in_progress_s $end
$var reg 2 # activebank_r $end
$var reg 2 $ activebank_x $end
$var reg 2 % ba_r $end
$var reg 2 & ba_x $end
$var reg 2 ' bank_s $end
$var reg 3 ( cmd_r $end
$var reg 3 ) cmd_x $end
$var reg 9 * col_s $end
$var reg 1 + doactivate_s $end
$var reg 3 , rastimer_r $end
$var reg 3 - rastimer_x $end
$var reg 1 . rd_in_progress_s $end
$var reg 5 / rdpipeline_r $end
$var reg 5 0 rdpipeline_x $end
$var reg 10 1 reftimer_r $end
$var reg 10 2 reftimer_x $end
$var reg 14 3 rfshcntr_r $end
$var reg 14 4 rfshcntr_x $end
$var reg 13 5 row_s $end
$var reg 13 6 saddr_r $end
$var reg 13 7 saddr_x $end
$var reg 16 8 sdata_r $end
$var reg 16 9 sdata_x $end
$var reg 1 : sdatadir_r $end
$var reg 1 ; sdatadir_x $end
$var reg 16 < sdramdata_r $end
$var reg 16 = sdramdata_x $end
$var reg 16 > sdriver $end
$var string 3 ? state_r $end
$var string 3 @ state_x $end
$var reg 11 A timer_r $end
$var reg 11 B timer_x $end
$var reg 1 C wr_in_progress_s $end
$var reg 5 D wrpipeline_r $end
$var reg 5 E wrpipeline_x $end
$var reg 2 F wrtimer_r $end
$var reg 2 G wrtimer_x $end
$var reg 1 H host_intf_rd_i $end
$var reg 1 I host_intf_wr_i $end
$var reg 1 J sd_intf_cke $end
$var reg 1 K sd_intf_cs $end
$var reg 1 L sd_intf_ras $end
$var reg 1 M sd_intf_cas $end
$var reg 1 N sd_intf_we $end
$var reg 2 O sd_intf_bs $end
$var reg 13 P sd_intf_addr $end
$var reg 1 Q sd_intf_dqml $end
$var reg 1 R sd_intf_dqmh $end
$var reg 1 S host_intf_done_o $end
$var reg 16 T host_intf_data_o $end
$var reg 1 U host_intf_rdPending_o $end
$var reg 16 V host_intf_data_i $end
$var reg 24 W host_intf_addr_i $end
$var reg 16 X sd_intf_dq $end
$scope module activeflag_r $end
$var reg 1 Y activeflag_r(0) $end
$var reg 1 Z activeflag_r(1) $end
$var reg 1 [ activeflag_r(2) $end
$var reg 1 \ activeflag_r(3) $end
$upscope $end
$scope module activeflag_x $end
$var reg 1 ] activeflag_x(0) $end
$var reg 1 ^ activeflag_x(1) $end
$var reg 1 _ activeflag_x(2) $end
$var reg 1 ` activeflag_x(3) $end
$upscope $end
$scope module activerow_r $end
$var reg 13 a activerow_r(0) $end
$var reg 13 b activerow_r(1) $end
$var reg 13 c activerow_r(2) $end
$var reg 13 d activerow_r(3) $end
$upscope $end
$scope module activerow_x $end
$var reg 13 e activerow_x(0) $end
$var reg 13 f activerow_x(1) $end
$var reg 13 g activerow_x(2) $end
$var reg 13 h activerow_x(3) $end
$upscope $end
$upscope $end

$enddefinitions $end
$dumpvars
0!
0"
b00 #
b00 $
b00 %
b00 &
b00 '
b111 (
b111 )
b000000000 *
0+
b000 ,
b000 -
0.
b00000 /
b00000 0
b1100001110 1
b1100001110 2
b00000000000000 3
b00000000000000 4
b0000000000000 5
b0000000000000 6
b0000000000000 7
b0000000000000000 8
b0000000000000000 9
0:
0;
b0000000000000000 <
b0000000000000000 =
bzzzzzzzzzzzzzzzz >
sINITWAIT ?
sINITWAIT @
b00000000000 A
b00000000000 B
0C
b00000 D
b00000 E
b00 F
b00 G
0H
0I
0J
0K
0L
0M
0N
b00 O
b0000000000000 P
0Q
0R
0S
b0000000000000000 T
0U
b0000000000000000 V
b000000000000000000000000 W
bzzzzzzzzzzzzzzzz X
0Y
0Z
0[
0\
0]
0^
0_
0`
b0000000000000 a
b0000000000000 b
b0000000000000 c
b0000000000000 d
b0000000000000 e
b0000000000000 f
b0000000000000 g
b0000000000000 h
$end
1+
1J
1L
1M
1N
b1100001101 2
sINITPCHG @
b11111010000 B
#1
1!
sINITPCHG ?
b11111010000 A
b1100001101 1
b1100001100 2
b11111001111 B
#2
0!
#3
1!
b11111001111 A
b1100001100 1
b1100001011 2
b11111001110 B
#4
0!
#5
1!
b11111001110 A
b1100001011 1
b1100001010 2
b11111001101 B
#6
0!
#7
1!
b11111001101 A
b1100001010 1
b1100001001 2
b11111001100 B
#8
0!
#9
1!
b11111001100 A
b1100001001 1
b1100001000 2
b11111001011 B
#10
0!
#11
1!
b11111001011 A
b1100001000 1
b1100000111 2
b11111001010 B
#12
0!
#13
1!
b11111001010 A
b1100000111 1
b1100000110 2
b11111001001 B
#14
0!
#15
1!
b11111001001 A
b1100000110 1
b1100000101 2
b11111001000 B
#16
0!
#17
1!
b11111001000 A
b1100000101 1
b1100000100 2
b11111000111 B
#18
0!
#19
1!
b11111000111 A
b1100000100 1
b1100000011 2
b11111000110 B
#20
0!
#21
1!
b11111000110 A
b1100000011 1
b1100000010 2
b11111000101 B
#22
0!
#23
1!
b11111000101 A
b1100000010 1
b1100000001 2
b11111000100 B
#24
0!
#25
1!
b11111000100 A
b1100000001 1
b1100000000 2
b11111000011 B
#26
0!
#27
1!
b11111000011 A
b1100000000 1
b1011111111 2
b11111000010 B
#28
0!
#29
1!
b11111000010 A
b1011111111 1
b1011111110 2
b11111000001 B
#30
0!
#31
1!
b11111000001 A
b1011111110 1
b1011111101 2
b11111000000 B
#32
0!
#33
1!
b11111000000 A
b1011111101 1
b1011111100 2
b11110111111 B
#34
0!
#35
1!
b11110111111 A
b1011111100 1
b1011111011 2
b11110111110 B
#36
0!
#37
1!
b11110111110 A
b1011111011 1
b1011111010 2
b11110111101 B
#38
0!
#39
1!
b11110111101 A
b1011111010 1
b1011111001 2
b11110111100 B
#40
0!
#41
1!
b11110111100 A
b1011111001 1
b1011111000 2
b11110111011 B
#42
0!
#43
1!
b11110111011 A
b1011111000 1
b1011110111 2
b11110111010 B
#44
0!
#45
1!
b11110111010 A
b1011110111 1
b1011110110 2
b11110111001 B
#46
0!
#47
1!
b11110111001 A
b1011110110 1
b1011110101 2
b11110111000 B
#48
0!
#49
1!
b11110111000 A
b1011110101 1
b1011110100 2
b11110110111 B
#50
0!
#51
1!
b11110110111 A
b1011110100 1
b1011110011 2
b11110110110 B
#52
0!
#53
1!
b11110110110 A
b1011110011 1
b1011110010 2
b11110110101 B
#54
0!
#55
1!
b11110110101 A
b1011110010 1
b1011110001 2
b11110110100 B
#56
0!
#57
1!
b11110110100 A
b1011110001 1
b1011110000 2
b11110110011 B
#58
0!
#59
1!
b11110110011 A
b1011110000 1
b1011101111 2
b11110110010 B
#60
0!
#61
1!
b11110110010 A
b1011101111 1
b1011101110 2
b11110110001 B
#62
0!
#63
1!
b11110110001 A
b1011101110 1
b1011101101 2
b11110110000 B
#64
0!
#65
1!
b11110110000 A
b1011101101 1
b1011101100 2
b11110101111 B
#66
0!
#67
1!
b11110101111 A
b1011101100 1
b1011101011 2
b11110101110 B
#68
0!
#69
1!
b11110101110 A
b1011101011 1
b1011101010 2
b11110101101 B
#70
0!
#71
1!
b11110101101 A
b1011101010 1
b1011101001 2
b11110101100 B
#72
0!
#73
1!
b11110101100 A
b1011101001 1
b1011101000 2
b11110101011 B
#74
0!
#75
1!
b11110101011 A
b1011101000 1
b1011100111 2
b11110101010 B
#76
0!
#77
1!
b11110101010 A
b1011100111 1
b1011100110 2
b11110101001 B
#78
0!
#79
1!
b11110101001 A
b1011100110 1
b1011100101 2
b11110101000 B
#80
0!
#81
1!
b11110101000 A
b1011100101 1
b1011100100 2
b11110100111 B
#82
0!
#83
1!
b11110100111 A
b1011100100 1
b1011100011 2
b11110100110 B
#84
0!
#85
1!
b11110100110 A
b1011100011 1
b1011100010 2
b11110100101 B
#86
0!
#87
1!
b11110100101 A
b1011100010 1
b1011100001 2
b11110100100 B
#88
0!
#89
1!
b11110100100 A
b1011100001 1
b1011100000 2
b11110100011 B
#90
0!
#91
1!
b11110100011 A
b1011100000 1
b1011011111 2
b11110100010 B
#92
0!
#93
1!
b11110100010 A
b1011011111 1
b1011011110 2
b11110100001 B
#94
0!
#95
1!
b11110100001 A
b1011011110 1
b1011011101 2
b11110100000 B
#96
0!
#97
1!
b11110100000 A
b1011011101 1
b1011011100 2
b11110011111 B
#98
0!
#99
1!
b11110011111 A
b1011011100 1
b1011011011 2
b11110011110 B
#100
0!
#101
1!
b11110011110 A
b1011011011 1
b1011011010 2
b11110011101 B
#102
0!
#103
1!
b11110011101 A
b1011011010 1
b1011011001 2
b11110011100 B
#104
0!
#105
1!
b11110011100 A
b1011011001 1
b1011011000 2
b11110011011 B
#106
0!
#107
1!
b11110011011 A
b1011011000 1
b1011010111 2
b11110011010 B
#108
0!
#109
1!
b11110011010 A
b1011010111 1
b1011010110 2
b11110011001 B
#110
0!
#111
1!
b11110011001 A
b1011010110 1
b1011010101 2
b11110011000 B
#112
0!
#113
1!
b11110011000 A
b1011010101 1
b1011010100 2
b11110010111 B
#114
0!
#115
1!
b11110010111 A
b1011010100 1
b1011010011 2
b11110010110 B
#116
0!
#117
1!
b11110010110 A
b1011010011 1
b1011010010 2
b11110010101 B
#118
0!
#119
1!
b11110010101 A
b1011010010 1
b1011010001 2
b11110010100 B
#120
0!
#121
1!
b11110010100 A
b1011010001 1
b1011010000 2
b11110010011 B
#122
0!
#123
1!
b11110010011 A
b1011010000 1
b1011001111 2
b11110010010 B
#124
0!
#125
1!
b11110010010 A
b1011001111 1
b1011001110 2
b11110010001 B
#126
0!
#127
1!
b11110010001 A
b1011001110 1
b1011001101 2
b11110010000 B
#128
0!
#129
1!
b11110010000 A
b1011001101 1
b1011001100 2
b11110001111 B
#130
0!
#131
1!
b11110001111 A
b1011001100 1
b1011001011 2
b11110001110 B
#132
0!
#133
1!
b11110001110 A
b1011001011 1
b1011001010 2
b11110001101 B
#134
0!
#135
1!
b11110001101 A
b1011001010 1
b1011001001 2
b11110001100 B
#136
0!
#137
1!
b11110001100 A
b1011001001 1
b1011001000 2
b11110001011 B
#138
0!
#139
1!
b11110001011 A
b1011001000 1
b1011000111 2
b11110001010 B
#140
0!
b000000000000000001111000 W
b0000000000010111 V
b0000000000010111 9
b001111000 *
#141
1!
b0000000000010111 8
b11110001010 A
b1011000111 1
b1011000110 2
b11110001001 B
#142
0!
#143
1!
b11110001001 A
b1011000110 1
b1011000101 2
b11110001000 B
#144
0!
#145
1!
1I
b11110001000 A
b1011000101 1
b1011000100 2
b11110000111 B
#146
0!
#147
1!
b11110000111 A
b1011000100 1
b1011000011 2
b11110000110 B
#148
0!
#149
1!
b11110000110 A
b1011000011 1
b1011000010 2
b11110000101 B
#150
0!
#151
1!
b11110000101 A
b1011000010 1
b1011000001 2
b11110000100 B
#152
0!
#153
1!
b11110000100 A
b1011000001 1
b1011000000 2
b11110000011 B
#154
0!
#155
1!
b11110000011 A
b1011000000 1
b1010111111 2
b11110000010 B
#156
0!
#157
1!
b11110000010 A
b1010111111 1
b1010111110 2
b11110000001 B
#158
0!
#159
1!
b11110000001 A
b1010111110 1
b1010111101 2
b11110000000 B
#160
0!
#161
1!
b11110000000 A
b1010111101 1
b1010111100 2
b11101111111 B
#162
0!
#163
1!
b11101111111 A
b1010111100 1
b1010111011 2
b11101111110 B
#164
0!
#165
1!
b11101111110 A
b1010111011 1
b1010111010 2
b11101111101 B
#166
0!
#167
1!
b11101111101 A
b1010111010 1
b1010111001 2
b11101111100 B
#168
0!
#169
1!
b11101111100 A
b1010111001 1
b1010111000 2
b11101111011 B
#170
0!
#171
1!
b11101111011 A
b1010111000 1
b1010110111 2
b11101111010 B
#172
0!
#173
1!
b11101111010 A
b1010110111 1
b1010110110 2
b11101111001 B
#174
0!
#175
1!
b11101111001 A
b1010110110 1
b1010110101 2
b11101111000 B
#176
0!
#177
1!
b11101111000 A
b1010110101 1
b1010110100 2
b11101110111 B
#178
0!
#179
1!
b11101110111 A
b1010110100 1
b1010110011 2
b11101110110 B
#180
0!
#181
1!
b11101110110 A
b1010110011 1
b1010110010 2
b11101110101 B
#182
0!
#183
1!
b11101110101 A
b1010110010 1
b1010110001 2
b11101110100 B
#184
0!
#185
1!
b11101110100 A
b1010110001 1
b1010110000 2
b11101110011 B
#186
0!
#187
1!
b11101110011 A
b1010110000 1
b1010101111 2
b11101110010 B
#188
0!
#189
1!
b11101110010 A
b1010101111 1
b1010101110 2
b11101110001 B
#190
0!
#191
1!
b11101110001 A
b1010101110 1
b1010101101 2
b11101110000 B
#192
0!
#193
1!
b11101110000 A
b1010101101 1
b1010101100 2
b11101101111 B
#194
0!
#195
1!
b11101101111 A
b1010101100 1
b1010101011 2
b11101101110 B
#196
0!
#197
1!
b11101101110 A
b1010101011 1
b1010101010 2
b11101101101 B
#198
0!
#199
1!
b11101101101 A
b1010101010 1
b1010101001 2
b11101101100 B
#200
0!
#201
1!
b11101101100 A
b1010101001 1
b1010101000 2
b11101101011 B
#202
0!
#203
1!
b11101101011 A
b1010101000 1
b1010100111 2
b11101101010 B
#204
0!
#205
1!
b11101101010 A
b1010100111 1
b1010100110 2
b11101101001 B
#206
0!
#207
1!
b11101101001 A
b1010100110 1
b1010100101 2
b11101101000 B
#208
0!
#209
1!
b11101101000 A
b1010100101 1
b1010100100 2
b11101100111 B
#210
0!
#211
1!
b11101100111 A
b1010100100 1
b1010100011 2
b11101100110 B
#212
0!
#213
1!
b11101100110 A
b1010100011 1
b1010100010 2
b11101100101 B
#214
0!
#215
1!
b11101100101 A
b1010100010 1
b1010100001 2
b11101100100 B
#216
0!
#217
1!
b11101100100 A
b1010100001 1
b1010100000 2
b11101100011 B
#218
0!
#219
1!
b11101100011 A
b1010100000 1
b1010011111 2
b11101100010 B
#220
0!
#221
1!
b11101100010 A
b1010011111 1
b1010011110 2
b11101100001 B
#222
0!
#223
1!
b11101100001 A
b1010011110 1
b1010011101 2
b11101100000 B
#224
0!
#225
1!
b11101100000 A
b1010011101 1
b1010011100 2
b11101011111 B
#226
0!
#227
1!
b11101011111 A
b1010011100 1
b1010011011 2
b11101011110 B
#228
0!
#229
1!
b11101011110 A
b1010011011 1
b1010011010 2
b11101011101 B
#230
0!
#231
1!
b11101011101 A
b1010011010 1
b1010011001 2
b11101011100 B
#232
0!
#233
1!
b11101011100 A
b1010011001 1
b1010011000 2
b11101011011 B
#234
0!
#235
1!
b11101011011 A
b1010011000 1
b1010010111 2
b11101011010 B
#236
0!
#237
1!
b11101011010 A
b1010010111 1
b1010010110 2
b11101011001 B
#238
0!
#239
1!
b11101011001 A
b1010010110 1
b1010010101 2
b11101011000 B
#240
0!
#241
1!
b11101011000 A
b1010010101 1
b1010010100 2
b11101010111 B
#242
0!
#243
1!
b11101010111 A
b1010010100 1
b1010010011 2
b11101010110 B
#244
0!
#245
1!
b11101010110 A
b1010010011 1
b1010010010 2
b11101010101 B
#246
0!
#247
1!
b11101010101 A
b1010010010 1
b1010010001 2
b11101010100 B
#248
0!
#249
1!
b11101010100 A
b1010010001 1
b1010010000 2
b11101010011 B
#250
0!
#251
1!
b11101010011 A
b1010010000 1
b1010001111 2
b11101010010 B
#252
0!
#253
1!
b11101010010 A
b1010001111 1
b1010001110 2
b11101010001 B
#254
0!
#255
1!
b11101010001 A
b1010001110 1
b1010001101 2
b11101010000 B
#256
0!
#257
1!
b11101010000 A
b1010001101 1
b1010001100 2
b11101001111 B
#258
0!
#259
1!
b11101001111 A
b1010001100 1
b1010001011 2
b11101001110 B
#260
0!
#261
1!
b11101001110 A
b1010001011 1
b1010001010 2
b11101001101 B
#262
0!
#263
1!
b11101001101 A
b1010001010 1
b1010001001 2
b11101001100 B
#264
0!
#265
1!
b11101001100 A
b1010001001 1
b1010001000 2
b11101001011 B
#266
0!
#267
1!
b11101001011 A
b1010001000 1
b1010000111 2
b11101001010 B
#268
0!
#269
1!
b11101001010 A
b1010000111 1
b1010000110 2
b11101001001 B
#270
0!
#271
1!
b11101001001 A
b1010000110 1
b1010000101 2
b11101001000 B
#272
0!
#273
1!
b11101001000 A
b1010000101 1
b1010000100 2
b11101000111 B
#274
0!
#275
1!
b11101000111 A
b1010000100 1
b1010000011 2
b11101000110 B
#276
0!
#277
1!
b11101000110 A
b1010000011 1
b1010000010 2
b11101000101 B
#278
0!
#279
1!
b11101000101 A
b1010000010 1
b1010000001 2
b11101000100 B
#280
0!
#281
1!
b11101000100 A
b1010000001 1
b1010000000 2
b11101000011 B
#282
0!
#283
1!
b11101000011 A
b1010000000 1
b1001111111 2
b11101000010 B
#284
0!
#285
1!
b11101000010 A
b1001111111 1
b1001111110 2
b11101000001 B
#286
0!
#287
1!
b11101000001 A
b1001111110 1
b1001111101 2
b11101000000 B
#288
0!
#289
1!
b11101000000 A
b1001111101 1
b1001111100 2
b11100111111 B
#290
0!
#291
1!
b11100111111 A
b1001111100 1
b1001111011 2
b11100111110 B
#292
0!
#293
1!
b11100111110 A
b1001111011 1
b1001111010 2
b11100111101 B
#294
0!
#295
1!
b11100111101 A
b1001111010 1
b1001111001 2
b11100111100 B
#296
0!
#297
1!
b11100111100 A
b1001111001 1
b1001111000 2
b11100111011 B
#298
0!
#299
1!
b11100111011 A
b1001111000 1
b1001110111 2
b11100111010 B
#300
0!
#301
1!
b11100111010 A
b1001110111 1
b1001110110 2
b11100111001 B
#302
0!
#303
1!
b11100111001 A
b1001110110 1
b1001110101 2
b11100111000 B
#304
0!
#305
1!
b11100111000 A
b1001110101 1
b1001110100 2
b11100110111 B
#306
0!
#307
1!
b11100110111 A
b1001110100 1
b1001110011 2
b11100110110 B
#308
0!
#309
1!
b11100110110 A
b1001110011 1
b1001110010 2
b11100110101 B
#310
0!
#311
1!
b11100110101 A
b1001110010 1
b1001110001 2
b11100110100 B
#312
0!
#313
1!
b11100110100 A
b1001110001 1
b1001110000 2
b11100110011 B
#314
0!
#315
1!
b11100110011 A
b1001110000 1
b1001101111 2
b11100110010 B
#316
0!
#317
1!
b11100110010 A
b1001101111 1
b1001101110 2
b11100110001 B
#318
0!
#319
1!
b11100110001 A
b1001101110 1
b1001101101 2
b11100110000 B
#320
0!
#321
1!
b11100110000 A
b1001101101 1
b1001101100 2
b11100101111 B
#322
0!
#323
1!
b11100101111 A
b1001101100 1
b1001101011 2
b11100101110 B
#324
0!
#325
1!
b11100101110 A
b1001101011 1
b1001101010 2
b11100101101 B
#326
0!
#327
1!
b11100101101 A
b1001101010 1
b1001101001 2
b11100101100 B
#328
0!
#329
1!
b11100101100 A
b1001101001 1
b1001101000 2
b11100101011 B
#330
0!
#331
1!
b11100101011 A
b1001101000 1
b1001100111 2
b11100101010 B
#332
0!
#333
1!
b11100101010 A
b1001100111 1
b1001100110 2
b11100101001 B
#334
0!
#335
1!
b11100101001 A
b1001100110 1
b1001100101 2
b11100101000 B
#336
0!
#337
1!
b11100101000 A
b1001100101 1
b1001100100 2
b11100100111 B
#338
0!
#339
1!
b11100100111 A
b1001100100 1
b1001100011 2
b11100100110 B
#340
0!
#341
1!
b11100100110 A
b1001100011 1
b1001100010 2
b11100100101 B
#342
0!
#343
1!
b11100100101 A
b1001100010 1
b1001100001 2
b11100100100 B
#344
0!
#345
1!
b11100100100 A
b1001100001 1
b1001100000 2
b11100100011 B
#346
0!
#347
1!
b11100100011 A
b1001100000 1
b1001011111 2
b11100100010 B
#348
0!
#349
1!
b11100100010 A
b1001011111 1
b1001011110 2
b11100100001 B
#350
0!
#351
1!
b11100100001 A
b1001011110 1
b1001011101 2
b11100100000 B
#352
0!
#353
1!
b11100100000 A
b1001011101 1
b1001011100 2
b11100011111 B
#354
0!
#355
1!
b11100011111 A
b1001011100 1
b1001011011 2
b11100011110 B
#356
0!
#357
1!
b11100011110 A
b1001011011 1
b1001011010 2
b11100011101 B
#358
0!
#359
1!
b11100011101 A
b1001011010 1
b1001011001 2
b11100011100 B
#360
0!
#361
1!
b11100011100 A
b1001011001 1
b1001011000 2
b11100011011 B
#362
0!
#363
1!
b11100011011 A
b1001011000 1
b1001010111 2
b11100011010 B
#364
0!
#365
1!
b11100011010 A
b1001010111 1
b1001010110 2
b11100011001 B
#366
0!
#367
1!
b11100011001 A
b1001010110 1
b1001010101 2
b11100011000 B
#368
0!
#369
1!
b11100011000 A
b1001010101 1
b1001010100 2
b11100010111 B
#370
0!
#371
1!
b11100010111 A
b1001010100 1
b1001010011 2
b11100010110 B
#372
0!
#373
1!
b11100010110 A
b1001010011 1
b1001010010 2
b11100010101 B
#374
0!
#375
1!
b11100010101 A
b1001010010 1
b1001010001 2
b11100010100 B
#376
0!
#377
1!
b11100010100 A
b1001010001 1
b1001010000 2
b11100010011 B
#378
0!
#379
1!
b11100010011 A
b1001010000 1
b1001001111 2
b11100010010 B
#380
0!
#381
1!
b11100010010 A
b1001001111 1
b1001001110 2
b11100010001 B
#382
0!
#383
1!
b11100010001 A
b1001001110 1
b1001001101 2
b11100010000 B
#384
0!
#385
1!
b11100010000 A
b1001001101 1
b1001001100 2
b11100001111 B
#386
0!
#387
1!
b11100001111 A
b1001001100 1
b1001001011 2
b11100001110 B
#388
0!
#389
1!
b11100001110 A
b1001001011 1
b1001001010 2
b11100001101 B
#390
0!
#391
1!
b11100001101 A
b1001001010 1
b1001001001 2
b11100001100 B
#392
0!
#393
1!
b11100001100 A
b1001001001 1
b1001001000 2
b11100001011 B
#394
0!
#395
1!
b11100001011 A
b1001001000 1
b1001000111 2
b11100001010 B
#396
0!
#397
1!
b11100001010 A
b1001000111 1
b1001000110 2
b11100001001 B
#398
0!
#399
1!
b11100001001 A
b1001000110 1
b1001000101 2
b11100001000 B
#400
0!
#401
1!
b11100001000 A
b1001000101 1
b1001000100 2
b11100000111 B
#402
0!
#403
1!
b11100000111 A
b1001000100 1
b1001000011 2
b11100000110 B
#404
0!
#405
1!
b11100000110 A
b1001000011 1
b1001000010 2
b11100000101 B
#406
0!
#407
1!
b11100000101 A
b1001000010 1
b1001000001 2
b11100000100 B
#408
0!
#409
1!
b11100000100 A
b1001000001 1
b1001000000 2
b11100000011 B
#410
0!
#411
1!
b11100000011 A
b1001000000 1
b1000111111 2
b11100000010 B
#412
0!
#413
1!
b11100000010 A
b1000111111 1
b1000111110 2
b11100000001 B
#414
0!
#415
1!
b11100000001 A
b1000111110 1
b1000111101 2
b11100000000 B
#416
0!
#417
1!
b11100000000 A
b1000111101 1
b1000111100 2
b11011111111 B
#418
0!
#419
1!
b11011111111 A
b1000111100 1
b1000111011 2
b11011111110 B
#420
0!
#421
1!
b11011111110 A
b1000111011 1
b1000111010 2
b11011111101 B
#422
0!
#423
1!
b11011111101 A
b1000111010 1
b1000111001 2
b11011111100 B
#424
0!
#425
1!
b11011111100 A
b1000111001 1
b1000111000 2
b11011111011 B
#426
0!
#427
1!
b11011111011 A
b1000111000 1
b1000110111 2
b11011111010 B
#428
0!
#429
1!
b11011111010 A
b1000110111 1
b1000110110 2
b11011111001 B
#430
0!
#431
1!
b11011111001 A
b1000110110 1
b1000110101 2
b11011111000 B
#432
0!
#433
1!
b11011111000 A
b1000110101 1
b1000110100 2
b11011110111 B
#434
0!
#435
1!
b11011110111 A
b1000110100 1
b1000110011 2
b11011110110 B
#436
0!
#437
1!
b11011110110 A
b1000110011 1
b1000110010 2
b11011110101 B
#438
0!
#439
1!
b11011110101 A
b1000110010 1
b1000110001 2
b11011110100 B
#440
0!
#441
1!
b11011110100 A
b1000110001 1
b1000110000 2
b11011110011 B
#442
0!
#443
1!
b11011110011 A
b1000110000 1
b1000101111 2
b11011110010 B
#444
0!
#445
1!
b11011110010 A
b1000101111 1
b1000101110 2
b11011110001 B
#446
0!
#447
1!
b11011110001 A
b1000101110 1
b1000101101 2
b11011110000 B
#448
0!
#449
1!
b11011110000 A
b1000101101 1
b1000101100 2
b11011101111 B
#450
0!
#451
1!
b11011101111 A
b1000101100 1
b1000101011 2
b11011101110 B
#452
0!
#453
1!
b11011101110 A
b1000101011 1
b1000101010 2
b11011101101 B
#454
0!
#455
1!
b11011101101 A
b1000101010 1
b1000101001 2
b11011101100 B
#456
0!
#457
1!
b11011101100 A
b1000101001 1
b1000101000 2
b11011101011 B
#458
0!
#459
1!
b11011101011 A
b1000101000 1
b1000100111 2
b11011101010 B
#460
0!
#461
1!
b11011101010 A
b1000100111 1
b1000100110 2
b11011101001 B
#462
0!
#463
1!
b11011101001 A
b1000100110 1
b1000100101 2
b11011101000 B
#464
0!
#465
1!
b11011101000 A
b1000100101 1
b1000100100 2
b11011100111 B
#466
0!
#467
1!
b11011100111 A
b1000100100 1
b1000100011 2
b11011100110 B
#468
0!
#469
1!
b11011100110 A
b1000100011 1
b1000100010 2
b11011100101 B
#470
0!
#471
1!
b11011100101 A
b1000100010 1
b1000100001 2
b11011100100 B
#472
0!
#473
1!
b11011100100 A
b1000100001 1
b1000100000 2
b11011100011 B
#474
0!
#475
1!
b11011100011 A
b1000100000 1
b1000011111 2
b11011100010 B
#476
0!
#477
1!
b11011100010 A
b1000011111 1
b1000011110 2
b11011100001 B
#478
0!
#479
1!
b11011100001 A
b1000011110 1
b1000011101 2
b11011100000 B
#480
0!
#481
1!
b11011100000 A
b1000011101 1
b1000011100 2
b11011011111 B
#482
0!
#483
1!
b11011011111 A
b1000011100 1
b1000011011 2
b11011011110 B
#484
0!
#485
1!
b11011011110 A
b1000011011 1
b1000011010 2
b11011011101 B
#486
0!
#487
1!
b11011011101 A
b1000011010 1
b1000011001 2
b11011011100 B
#488
0!
#489
1!
b11011011100 A
b1000011001 1
b1000011000 2
b11011011011 B
#490
0!
#491
1!
b11011011011 A
b1000011000 1
b1000010111 2
b11011011010 B
#492
0!
#493
1!
b11011011010 A
b1000010111 1
b1000010110 2
b11011011001 B
#494
0!
#495
1!
b11011011001 A
b1000010110 1
b1000010101 2
b11011011000 B
#496
0!
#497
1!
b11011011000 A
b1000010101 1
b1000010100 2
b11011010111 B
#498
0!
#499
1!
b11011010111 A
b1000010100 1
b1000010011 2
b11011010110 B
#500
0!
#501
1!
b11011010110 A
b1000010011 1
b1000010010 2
b11011010101 B
#502
0!
#503
1!
b11011010101 A
b1000010010 1
b1000010001 2
b11011010100 B
#504
0!
#505
1!
b11011010100 A
b1000010001 1
b1000010000 2
b11011010011 B
#506
0!
#507
1!
b11011010011 A
b1000010000 1
b1000001111 2
b11011010010 B
#508
0!
#509
1!
b11011010010 A
b1000001111 1
b1000001110 2
b11011010001 B
#510
0!
#511
1!
b11011010001 A
b1000001110 1
b1000001101 2
b11011010000 B
#512
0!
#513
1!
b11011010000 A
b1000001101 1
b1000001100 2
b11011001111 B
#514
0!
#515
1!
b11011001111 A
b1000001100 1
b1000001011 2
b11011001110 B
#516
0!
#517
1!
b11011001110 A
b1000001011 1
b1000001010 2
b11011001101 B
#518
0!
#519
1!
b11011001101 A
b1000001010 1
b1000001001 2
b11011001100 B
#520
0!
#521
1!
b11011001100 A
b1000001001 1
b1000001000 2
b11011001011 B
#522
0!
#523
1!
b11011001011 A
b1000001000 1
b1000000111 2
b11011001010 B
#524
0!
#525
1!
b11011001010 A
b1000000111 1
b1000000110 2
b11011001001 B
#526
0!
#527
1!
b11011001001 A
b1000000110 1
b1000000101 2
b11011001000 B
#528
0!
#529
1!
b11011001000 A
b1000000101 1
b1000000100 2
b11011000111 B
#530
0!
#531
1!
b11011000111 A
b1000000100 1
b1000000011 2
b11011000110 B
#532
0!
#533
1!
b11011000110 A
b1000000011 1
b1000000010 2
b11011000101 B
#534
0!
#535
1!
b11011000101 A
b1000000010 1
b1000000001 2
b11011000100 B
#536
0!
#537
1!
b11011000100 A
b1000000001 1
b1000000000 2
b11011000011 B
#538
0!
#539
1!
b11011000011 A
b1000000000 1
b0111111111 2
b11011000010 B
#540
0!
#541
1!
b11011000010 A
b0111111111 1
b0111111110 2
b11011000001 B
#542
0!
#543
1!
b11011000001 A
b0111111110 1
b0111111101 2
b11011000000 B
#544
0!
#545
1!
b11011000000 A
b0111111101 1
b0111111100 2
b11010111111 B
#546
0!
#547
1!
b11010111111 A
b0111111100 1
b0111111011 2
b11010111110 B
#548
0!
#549
1!
b11010111110 A
b0111111011 1
b0111111010 2
b11010111101 B
#550
0!
#551
1!
b11010111101 A
b0111111010 1
b0111111001 2
b11010111100 B
#552
0!
#553
1!
b11010111100 A
b0111111001 1
b0111111000 2
b11010111011 B
#554
0!
#555
1!
b11010111011 A
b0111111000 1
b0111110111 2
b11010111010 B
#556
0!
#557
1!
b11010111010 A
b0111110111 1
b0111110110 2
b11010111001 B
#558
0!
#559
1!
b11010111001 A
b0111110110 1
b0111110101 2
b11010111000 B
#560
0!
#561
1!
b11010111000 A
b0111110101 1
b0111110100 2
b11010110111 B
#562
0!
#563
1!
b11010110111 A
b0111110100 1
b0111110011 2
b11010110110 B
#564
0!
#565
1!
b11010110110 A
b0111110011 1
b0111110010 2
b11010110101 B
#566
0!
#567
1!
b11010110101 A
b0111110010 1
b0111110001 2
b11010110100 B
#568
0!
#569
1!
b11010110100 A
b0111110001 1
b0111110000 2
b11010110011 B
#570
0!
#571
1!
b11010110011 A
b0111110000 1
b0111101111 2
b11010110010 B
#572
0!
#573
1!
b11010110010 A
b0111101111 1
b0111101110 2
b11010110001 B
#574
0!
#575
1!
b11010110001 A
b0111101110 1
b0111101101 2
b11010110000 B
#576
0!
#577
1!
b11010110000 A
b0111101101 1
b0111101100 2
b11010101111 B
#578
0!
#579
1!
b11010101111 A
b0111101100 1
b0111101011 2
b11010101110 B
#580
0!
#581
1!
b11010101110 A
b0111101011 1
b0111101010 2
b11010101101 B
#582
0!
#583
1!
b11010101101 A
b0111101010 1
b0111101001 2
b11010101100 B
#584
0!
#585
1!
b11010101100 A
b0111101001 1
b0111101000 2
b11010101011 B
#586
0!
